1 10 20
100 200 125
201 210 89
900 1000 174
10 1 20
986446 353313 525
971788 879596 507
957808 290946 525
197901 41086 383
556536 104310 470
701403 765379 504
153839 311268 443
439094 756206 509
689765 836300 504
323929 38443 443
485075 461012 444
1385 697354 509
478904 642247 509
507880 880230 525
479435 491015 413
447544 758046 509
718571 644750 504
987749 335633 525
329640 352002 441
981179 419307 525
891492 515456 525
469062 83434 449
259812 309392 407
764299 605658 509
369021 961263 525
455474 198920 449
208654 277456 443
306642 642744 509
299211 583986 470
846027 269243 525
696693 282563 509
567781 899978 525
92285 673121 509
511847 535081 470
664656 261145 509
259414 358808 441
239905 719067 509
225591 626115 470
349742 921910 525
735414 933120 525
189590 943785 525
377172 83608 443
882405 933754 476
9894 271834 443
681304 697672 442
626765 447570 509
256513 542855 470
655261 672702 442
844701 933663 476
554697 487899 470
493222 886110 525
427852 238821 449
682041 812972 504
266881 269083 345
976413 658465 525
994934 236899 525
435176 108492 449
533713 275379 470
987008 820580 525
124916 341368 443
388434 221246 443
852437 228630 525
739662 451288 509
29309 162544 383
648811 608578 509
500408 358110 449
815958 726607 468
278934 660305 509
300764 499814 449
210573 527161 470
744301 791652 468
779771 694378 504
520494 719167 509
549787 196329 470
721788 605304 509
182137 179566 365
455782 508679 444
343616 164860 443
602977 539528 452
949051 511221 525
135369 353659 443
521490 706754 509
294238 654848 509
414861 738500 509
192563 614216 470
354408 392978 436
696042 804914 504
878461 457749 525
725638 692157 504
683389 769960 504
541817 8175 470
248251 618617 470
581630 845481 525
215286 202042 373
432850 546887 470
273359 69063 443
447940 960232 525
261317 197655 443
531852 944317 525
547884 691347 509
269067 553428 470
