.............
----------------------------------------------------------------------
Ran 13 tests in 0.046s

OK
Name             Stmts   Miss Branch BrPart  Cover   Missing
------------------------------------------------------------
Collatz.py          31      0     10      0   100%
TestCollatz.py      60      0      2      0   100%
------------------------------------------------------------
TOTAL               91      0     12      0   100%
