.....................
----------------------------------------------------------------------
Ran 21 tests in 0.631s

OK
Name             Stmts   Miss Branch BrPart  Cover   Missing
------------------------------------------------------------
Collatz.py          64      0     38      0   100%
TestCollatz.py      89      0      2      0   100%
------------------------------------------------------------
TOTAL              153      0     40      0   100%
