1 10 20
1 1 1
40 145 122
21873 21816 238
3 1 8
1 3 8
9 12 20
12 99 119
69 420 144
837898 837765 525
999999 999999 259
988877 987547 352
897458 895524 370
1 999999 525
9889 5656 262
7877 7777 221
249176 249035 288
662562 662794 248
438859 438707 338
203948 123848 383
92348 26346 351
20 200 125
180 460 144
72345 23450 340
999999 888888 507
123 321 131
56666 99999 351
1000 2000 182
2000 3000 217
3000 4000 238
4000 5000 215
5000 6000 236
6000 7000 262
7000 8000 252
8000 9000 247
9000 10000 260
15000 20000 279
999999 999999 259
3 2 8
455 567 142
30000 40000 324
40000 50000 314
50000 60000 340
60000 70000 335
50000 70000 340
70000 80000 351
80000 90000 333
90000 999999 525
100000 200000 383
200000 300000 443
300000 400000 441
400000 500000 449
500000 600000 470
600000 700000 509
700000 800000 504
800000 900000 525
900000 999999 507
123333 322222 443
222222 333333 443
322211 222222 443
221234 452262 449
695949 122411 509
583489 324923 470
905629 903495 383
439499 101011 449
1 999999 525
434389 349438 449
323232 435323 449
543455 232333 470
233333 545454 470
590439 439545 470
123456 654321 509
233234 233233 125
3233 3232 168
999999 2 525
895483 34 525
344 5444 238
23232 455 279
5689 4589 236
21 4300 238
84589 345 351
3434 9090 262
3213 32132 308
5555 89898 351
12 12 10
122 5444 238
5000 500000 449
123 34444 311
5567 444 238
23 34 112
567 9999 262
3434 39090 324
55567 344490 443
444 56567 340
523 90900 351
3459 124 217
45642 9 324
2344 8989 262
4389 4382 140
8757 4389 262
3772 4889 215
939 494 179
4942 4499 210
4443 3444 238
9808 2389 262
6489 439 262
329 2323 183
2332 9000 262
122 12222 268
4555 2333 238
9393 93 262
3293 23 217
3294 493 217
3223 3289 168
90 329 144
