1 10 20
100 200 125
201 210 89
900 1000 174
85981 86031 196
3370 3420 181
19806 19856 168
76017 76067 201
70256 70306 250
60908 60958 211
13 7 20
51035 51085 265
55870 55920 185
56251 56301 304
65099 65149 206
69 420 144
70932 70982 250
94840 94890 191
27696 27746 184
8021 8071 190
22602 22652 207
38000 38050 200
1 1 1
78907 78957 214
85407 85457 183
11653 11703 219
22469 22519 207
70467 70517 175
58423 58473 242
33002 33052 267
46450 46500 177
45531 45581 239
3834 3884 145
73398 73448 219
33301 33351 205
6305 6355 200
49988 50038 234
39933 39983 306
12397 12447 263
42322 42372 151
43081 43131 195
85663 85713 302
15543 15593 222
62395 62445 224
35740 35790 156
96256 96306 191
68129 68179 206
60084 60134 211
23526 23576 282
2355 2405 165
28329 28379 228
80697 80747 276
664 714 171
44344 44394 208
67804 67854 237
95728 95778 284
86829 86879 227
79803 79853 245
42991 43041 195
7647 7697 177
33536 33586 267
43372 43422 208
36574 36624 187
221 271 128
28001 28051 184
39509 39559 244
57100 57150 304
54727 54777 216
76878 76928 232
90751 90801 271
80898 80948 214
52411 52461 172
49743 49793 234
96875 96925 222
49030 49080 159
51917 51967 247
46694 46744 252
90572 90622 209
20199 20249 212
56925 56975 260
17064 17114 204
65855 65905 162
51563 51613 190
4494 4544 184
7226 7276 164
31036 31086 179
26339 26389 246
68056 68106 268
1111 1161 182
43560 43610 195
92041 92091 178
70671 70721 281
8384 8434 203
42939 42989 195
32959 33009 192
13872 13922 258
61930 61980 180
93585 93635 222
85465 85515 196
25143 25193 264
84062 84112 258
87605 87655 240
18710 18760 230
69531 69581 299
86823 86873 227
60158 60208 317
75954 76004 188
40749 40799 213
49790 49840 265
20643 20693 181
62245 62295 255
68382 68432 206
21694 21744 207
16182 16232 191
20569 20619 212
64812 64862 268
74152 74202 263
17479 17529 217
65423 65473 193
52603 52653 216
79438 79488 245
19144 19194 199
59474 59524 167
64484 64534 193
95552 95602 253
2546 2596 178
34394 34444 174
73863 73913 232
47413 47463 190
16255 16305 204
23367 23417 220
49902 49952 203
12628 12678 201
35924 35974 218
72715 72765 188
87640 87690 240
58628 58678 198
31193 31243 254
16768 16818 266
33145 33195 192
78772 78822 338
86236 86286 196
42589 42639 226
8742 8792 216
65037 65087 206
12874 12924 170
14364 14414 196
37791 37841 231
95337 95387 253
11122 11172 237
5659 5709 205
65564 65614 237
55611 55661 260
65192 65242 193
